<?xml version="1.0"?>
<!DOCTYPE svg PUBLIC "-//W3C//DTD SVG 1.1//EN"
  "http://www.w3.org/Graphics/SVG/1.1/DTD/svg11.dtd">
<svg width="120px" height="120px" viewBox="0 0 120 120" version="1.1" xmlns="http://www.w3.org/2000/svg" xmlns:xlink="http://www.w3.org/1999/xlink">
    <!-- Generator: Sketch 43.2 (39069) - http://www.bohemiancoding.com/sketch -->
    <desc>Created with Sketch.</desc>
    <defs></defs>
    <g id="Page-4" stroke="none" stroke-width="1" fill="none" fill-rule="evenodd">
        <g id="defaultIcon">
            <path d="M120,108 C120,114.6 114.6,120 108,120 L12,120 C5.4,120 0,114.6 0,108 L0,12 C0,5.4 5.4,0 12,0 L108,0 C114.6,0 120,5.4 120,12 L120,108 L120,108 Z" id="Shape" fill="#676868" fill-rule="nonzero"></path>
            <g id="Enosix-Icon" transform="translate(26.000000, 13.000000)">
                <g id="Group-2" transform="translate(0.000000, 9.636364)" fill="#EB8C30">
                    <polyline id="Fill-7" points="0 0.110250959 0 16.6093369 0.155128326 16.6862781 16.0186156 8.14419816 0 0.110250959"></polyline>
                    <polyline id="Fill-8" points="68.3404914 76.274058 68.3404914 60.3680608 68.0754805 60.2366196 52.7840289 68.4709346 68.3404914 76.274058"></polyline>
                </g>
                <g id="Group" fill="#FFFFFF">
                    <polyline id="Fill-9" points="0 37.0559439 0 48.5762908 68.3404914 11.7679249 68.3404914 0.250783949 0 37.0559439"></polyline>
                    <polyline id="Fill-10" points="0 60.2649466 0 71.7820876 55.8478134 41.7044768 55.8478134 30.1857329 0 60.2649466"></polyline>
                    <polyline id="Fill-11" points="0 94.9894873 68.3404914 58.1811215 68.3404914 46.6639805 0 83.4723463 0 94.9894873"></polyline>
                </g>
            </g>
        </g>
    </g>
</svg>